 [
  {
  "Id": 19,
  "Question": "test Q",
  "AnswerOne": "a",
  "AnswerTwo": "b",
  "AnswerThree": "c",
  "AnswerFour": "d",
  "AnswerId": null,
  "AnswerOnePercentage": "0",
  "AnswerTwoPercentage": "0",
  "AnswerThreePercentage": "0",
  "AnswerFourPercentage": "0",
  "AnswerStatus": "No"
  },
  {
  "Id": 20,
  "Question": "This is Questions 1 ?",
  "AnswerOne": "asd",
  "AnswerTwo": "asd",
  "AnswerThree": "asd",
  "AnswerFour": "asd",
  "AnswerId": "4",
  "AnswerOnePercentage": "00%",
  "AnswerTwoPercentage": "00%",
  "AnswerThreePercentage": "00%",
  "AnswerFourPercentage": "100.00%",
  "AnswerStatus": "Yes"
  },
  {
  "Id": 21,
  "Question": "This is Questions 2 ?",
  "AnswerOne": "asd",
  "AnswerTwo": "asd",
  "AnswerThree": "asd",
  "AnswerFour": "asd",
  "AnswerId": "4",
  "AnswerOnePercentage": "00%",
  "AnswerTwoPercentage": "00%",
  "AnswerThreePercentage": "00%",
  "AnswerFourPercentage": "100.00%",
  "AnswerStatus": "Yes"
  },
  {
  "Id": 22,
  "Question": "This is Questions 3 ?",
  "AnswerOne": "asd",
  "AnswerTwo": "asd",
  "AnswerThree": "asd",
  "AnswerFour": "asd",
  "AnswerId": "4",
  "AnswerOnePercentage": "00%",
  "AnswerTwoPercentage": "00%",
  "AnswerThreePercentage": "00%",
  "AnswerFourPercentage": "100.00%",
  "AnswerStatus": "Yes"
  },
  {
  "Id": 23,
  "Question": "This is Questions 4 ?",
  "AnswerOne": "asd",
  "AnswerTwo": "asd",
  "AnswerThree": "asd",
  "AnswerFour": "asd",
  "AnswerId": "4",
  "AnswerOnePercentage": "00%",
  "AnswerTwoPercentage": "00%",
  "AnswerThreePercentage": "00%",
  "AnswerFourPercentage": "100.00%",
  "AnswerStatus": "Yes"
  },
  {
  "Id": 24,
  "Question": "This is Questions 5 ?",
  "AnswerOne": "asd",
  "AnswerTwo": "asd",
  "AnswerThree": "asd",
  "AnswerFour": "asd",
  "AnswerId": "4",
  "AnswerOnePercentage": "00%",
  "AnswerTwoPercentage": "00%",
  "AnswerThreePercentage": "00%",
  "AnswerFourPercentage": "100.00%",
  "AnswerStatus": "Yes"
  },
  {
  "Id": 25,
  "Question": "This is Questions 6 ?",
  "AnswerOne": "asd",
  "AnswerTwo": "asd",
  "AnswerThree": "asd",
  "AnswerFour": "asd",
  "AnswerId": "4",
  "AnswerOnePercentage": "00%",
  "AnswerTwoPercentage": "00%",
  "AnswerThreePercentage": "00%",
  "AnswerFourPercentage": "100.00%",
  "AnswerStatus": "Yes"
  }
  ]